{"failedCount":0,"prefixedPath":"src\/test\/java\/examples\/users\/GetCallDemo.feature","packageQualifiedName":"src.test.java.examples.users.GetCallDemo","loopIndex":-1,"relativePath":"src\/test\/java\/examples\/users\/GetCallDemo.feature","scenarioResults":[{"sectionIndex":2,"stepResults":[{"result":{"nanos":2093661,"millis":2.093661,"status":"passed"},"step":{"background":true,"line":4,"prefix":"*","index":0,"text":"url 'https:\/\/reqres.in'"},"stepLog":"17:47:12.588 karate.env system property was: null \n"},{"result":{"nanos":588908,"millis":0.588908,"status":"passed"},"step":{"line":27,"prefix":"Given","index":0,"text":"path \"\/api\/users\""}},{"result":{"nanos":679957,"millis":0.679957,"status":"passed"},"step":{"line":28,"prefix":"And","index":1,"text":"param page = \"2\""}},{"result":{"nanos":952271408,"millis":952.271408,"status":"passed"},"step":{"line":29,"prefix":"When","index":2,"text":"method GET"},"stepLog":"17:47:12.935 request:\n1 > GET https:\/\/reqres.in\/api\/users?page=2\n1 > Host: reqres.in\n1 > Connection: Keep-Alive\n1 > User-Agent: Apache-HttpClient\/4.5.13 (Java\/11.0.19)\n1 > Accept-Encoding: gzip,deflate\n\n\n17:47:13.553 response time in milliseconds: 613\n1 < 200\n1 < Date: Sun, 18 Jun 2023 12:17:13 GMT\n1 < Content-Type: application\/json; charset=utf-8\n1 < Transfer-Encoding: chunked\n1 < Connection: keep-alive\n1 < X-Powered-By: Express\n1 < Access-Control-Allow-Origin: *\n1 < Etag: W\/\"406-ut0vzoCuidvyMf8arZpMpJ6ZRDw\"\n1 < Via: 1.1 vegur\n1 < Cache-Control: max-age=14400\n1 < CF-Cache-Status: HIT\n1 < Age: 5367\n1 < Report-To: {\"endpoints\":[{\"url\":\"https:\\\/\\\/a.nel.cloudflare.com\\\/report\\\/v3?s=u18w%2FrhGFd0WsLcpaFm3aUAo7br6BsUXFicEBfz2GFvDLGz5tz6XwVRNYiXEWlpXZqMwP6L8AK%2Bj9LXAkcQKyeFWgsp2i0VTWbU2vPqvXYurRUprpWabpTLUBQ%3D%3D\"}],\"group\":\"cf-nel\",\"max_age\":604800}\n1 < NEL: {\"success_fraction\":0,\"report_to\":\"cf-nel\",\"max_age\":604800}\n1 < Vary: Accept-Encoding\n1 < Server: cloudflare\n1 < CF-RAY: 7d9377cb0dd8f4d2-BOM\n{\"page\":2,\"per_page\":6,\"total\":12,\"total_pages\":2,\"data\":[{\"id\":7,\"email\":\"michael.lawson@reqres.in\",\"first_name\":\"Michael\",\"last_name\":\"Lawson\",\"avatar\":\"https:\/\/reqres.in\/img\/faces\/7-image.jpg\"},{\"id\":8,\"email\":\"lindsay.ferguson@reqres.in\",\"first_name\":\"Lindsay\",\"last_name\":\"Ferguson\",\"avatar\":\"https:\/\/reqres.in\/img\/faces\/8-image.jpg\"},{\"id\":9,\"email\":\"tobias.funke@reqres.in\",\"first_name\":\"Tobias\",\"last_name\":\"Funke\",\"avatar\":\"https:\/\/reqres.in\/img\/faces\/9-image.jpg\"},{\"id\":10,\"email\":\"byron.fields@reqres.in\",\"first_name\":\"Byron\",\"last_name\":\"Fields\",\"avatar\":\"https:\/\/reqres.in\/img\/faces\/10-image.jpg\"},{\"id\":11,\"email\":\"george.edwards@reqres.in\",\"first_name\":\"George\",\"last_name\":\"Edwards\",\"avatar\":\"https:\/\/reqres.in\/img\/faces\/11-image.jpg\"},{\"id\":12,\"email\":\"rachel.howell@reqres.in\",\"first_name\":\"Rachel\",\"last_name\":\"Howell\",\"avatar\":\"https:\/\/reqres.in\/img\/faces\/12-image.jpg\"}],\"support\":{\"url\":\"https:\/\/reqres.in\/#support-heading\",\"text\":\"To keep ReqRes free, contributions towards server costs are appreciated!\"}}\n\n"},{"result":{"nanos":53741,"millis":0.053741,"status":"passed"},"step":{"line":30,"prefix":"Then","index":3,"text":"status 200"}},{"result":{"nanos":28178492,"millis":28.178492,"status":"passed"},"step":{"line":31,"prefix":"Then","index":4,"text":"match response.page == 2"}}],"executorName":"main","line":26,"name":"Get the details of User 2","description":"","durationMillis":983.866167,"startTime":1687090632387,"failed":false,"refId":"[3:26]","endTime":1687090633620,"exampleIndex":-1}],"callDepth":0,"name":"Get the details of User 2","description":"","resultDate":"2023-06-18 05:47:13 PM","durationMillis":983.866167,"passedCount":1}